<svg xmlns="http://www.w3.org/2000/svg" xmlns:xlink="http://www.w3.org/1999/xlink" preserveAspectRatio="xMidYMid" width="611.531" height="537.656" viewBox="0 0 611.531 537.656">
  <defs>
    <style>
      .cls-1 {
        fill: #000;
        filter: url(#color-overlay-1);
        fill-rule: evenodd;
      }
    </style>

    <filter id="color-overlay-1" filterUnits="userSpaceOnUse">
      <feFlood flood-color="#fff"/>
      <feComposite operator="in" in2="SourceGraphic"/>
      <feBlend in2="SourceGraphic" result="solidFill"/>
    </filter>
  </defs>
  <path d="M590.596,503.908 C530.957,503.908 449.228,490.169 398.552,424.710 C393.139,417.717 388.561,410.713 384.667,403.901 C380.771,410.713 376.194,417.717 370.780,424.710 C342.811,460.839 286.785,503.908 178.737,503.908 C166.898,503.908 157.302,494.312 157.302,482.473 C157.302,470.634 166.898,461.039 178.737,461.039 C314.417,461.039 350.824,385.689 360.225,353.102 C322.048,338.591 296.328,292.559 296.328,259.712 C296.328,217.843 335.956,183.781 384.667,183.781 C433.378,183.781 473.006,217.843 473.006,259.712 C473.006,292.559 447.287,338.591 409.110,353.102 C418.512,385.687 454.920,461.039 590.598,461.039 C602.435,461.039 612.030,470.634 612.030,482.473 C612.030,494.312 602.435,503.908 590.596,503.908 ZM560.147,169.896 C559.780,169.911 559.413,169.918 559.049,169.918 C544.181,169.918 532.072,158.279 531.480,143.418 C531.187,136.056 533.778,129.021 538.775,123.608 C543.776,118.187 550.587,115.043 557.955,114.750 C573.298,114.148 586.021,126.004 586.625,141.229 C586.918,148.595 584.324,155.633 579.322,161.049 C574.320,166.462 567.511,169.603 560.147,169.896 ZM229.756,277.133 C212.015,289.903 190.282,296.655 166.919,296.655 C166.917,296.655 166.914,296.655 166.909,296.655 C117.031,296.650 63.774,266.149 27.926,217.052 C27.864,216.969 27.802,216.883 27.742,216.798 C1.390,179.575 -6.646,136.118 5.698,97.569 C18.059,58.959 49.956,28.176 93.208,13.117 C117.841,4.534 144.158,-0.003 169.310,-0.003 C235.857,-0.003 286.178,30.077 300.639,78.495 C300.665,78.581 300.692,78.669 300.716,78.755 C310.013,111.392 307.220,150.641 292.847,189.271 C279.134,226.131 256.136,258.154 229.756,277.133 ZM209.188,114.753 C194.003,115.355 182.123,128.201 182.709,143.420 C183.300,158.279 195.408,169.918 210.279,169.918 C210.643,169.918 211.010,169.911 211.379,169.896 C226.581,169.294 238.455,156.433 237.853,141.231 C237.248,126.008 224.532,114.202 209.188,114.753 ZM366.734,495.446 L402.599,495.446 C414.438,495.446 424.032,505.042 424.032,516.881 C424.032,528.719 414.438,538.315 402.599,538.315 L366.734,538.315 C354.895,538.315 345.299,528.719 345.299,516.881 C345.299,505.042 354.895,495.446 366.734,495.446 Z" class="cls-1"/>
</svg>
